<svg xmlns="http://www.w3.org/2000/svg" width="855.285" height="1099.204" viewBox="0 0 855.285 1099.204">
  <path id="Trazado_3639" data-name="Trazado 3639" d="M-6633.859,666.781l-447.064,662.547s-48.072,82.6,28.555,134.623,136.459-22.92,136.459-22.92l239.5-354.654s60.582-69.937,131.32-22.139,37.775,124.361,37.775,124.361l-246.35,366.4s-40.809,84.439,30.594,131.629,130.523-17.324,130.523-17.324l289.91-428.228" transform="translate(7121.819 -630.686)" fill="none" stroke="#74e507" stroke-linecap="round" stroke-width="52"/>
</svg>
